Medu,Fedu,traveltime,studytime,failures,schoolsup,famsup,paid,activities,nursery,higher,internet,romantic,famrel,freetime,goout,Dalc,Walc,health,absences
4,4,2,2,0,1,0,0,0,1,1,0,0,4,3,4,1,1,3,6
1,1,1,2,0,0,1,0,0,0,1,1,0,5,3,3,1,1,3,4
1,1,1,2,3,1,0,1,0,1,1,1,0,4,3,2,2,3,3,10
4,2,1,3,0,0,1,1,1,1,1,1,1,3,2,2,1,1,5,2
3,3,1,2,0,0,1,1,0,1,1,0,0,4,3,2,1,2,5,4
4,3,1,2,0,0,1,1,1,1,1,1,0,5,4,2,1,2,5,10
2,2,1,2,0,0,0,0,0,1,1,1,0,4,4,4,1,1,3,0
4,4,2,2,0,1,1,0,0,1,1,0,0,4,1,4,1,1,1,6
3,2,1,2,0,0,1,1,0,1,1,1,0,4,2,2,1,1,1,0
3,4,1,2,0,0,1,1,1,1,1,1,0,5,5,1,1,1,5,0
4,4,1,2,0,0,1,1,0,1,1,1,0,3,3,3,1,2,2,0
2,1,3,3,0,0,1,0,1,1,1,1,0,5,2,2,1,1,4,4
4,4,1,1,0,0,1,1,1,1,1,1,0,4,3,3,1,3,5,2
4,3,2,2,0,0,1,1,0,1,1,1,0,5,4,3,1,2,3,2
2,2,1,3,0,0,1,0,0,1,1,1,1,4,5,2,1,1,3,0
4,4,1,1,0,0,1,0,0,1,1,1,0,4,4,4,1,2,2,4
4,4,1,3,0,0,1,1,1,1,1,1,0,3,2,3,1,2,2,6
3,3,3,2,0,1,1,0,1,1,1,0,0,5,3,2,1,1,4,4
3,2,1,1,3,0,1,0,1,1,1,1,0,5,5,5,2,4,5,16
4,3,1,1,0,0,0,1,1,1,1,1,0,3,1,3,1,3,5,4
4,3,1,2,0,0,0,0,0,1,1,1,0,4,4,1,1,1,1,0
4,4,1,1,0,0,1,1,0,1,1,1,0,5,4,2,1,1,5,0
4,2,1,2,0,0,0,0,1,1,1,1,0,4,5,1,1,3,5,2
2,2,2,2,0,0,1,0,1,1,1,1,0,5,4,4,2,4,5,0
2,4,1,3,0,1,1,1,1,1,1,1,0,4,3,2,1,1,5,2
2,2,1,1,2,0,1,1,0,0,1,1,0,1,2,2,1,3,5,14
2,2,1,1,0,0,1,1,0,1,1,1,0,4,2,2,1,2,5,2
4,2,1,1,0,0,0,1,0,1,1,1,0,2,2,4,2,4,1,4
3,4,1,2,0,1,1,0,1,1,1,1,0,5,3,3,1,1,5,4
4,4,1,2,0,0,1,1,1,1,1,1,1,4,4,5,5,5,5,16
4,4,1,2,0,0,1,1,0,0,1,1,0,5,4,2,3,4,5,0
4,4,2,2,0,0,1,0,1,1,1,1,0,4,3,1,1,1,5,0
4,3,1,2,0,0,1,0,1,1,1,1,1,4,5,2,1,1,5,0
3,3,1,2,0,0,0,0,1,0,1,1,0,5,3,2,1,1,2,0
3,2,1,1,0,0,1,1,0,0,1,1,0,5,4,3,1,1,5,0
2,3,2,1,0,0,1,0,1,1,1,0,0,3,5,1,1,1,5,0
4,3,1,3,0,0,1,0,1,1,1,1,0,5,4,3,1,1,4,2
4,4,2,3,0,0,1,0,1,1,1,1,1,2,4,3,1,1,5,7
3,4,1,3,0,1,1,1,1,1,1,1,0,4,3,2,1,1,5,2
2,2,1,1,0,1,1,1,1,1,1,0,0,4,3,1,1,1,2,8
2,2,2,2,1,0,1,0,1,0,1,1,1,3,3,3,1,2,3,25
4,4,1,1,0,0,1,0,0,0,1,1,1,5,4,3,2,4,5,8
4,4,1,2,0,0,1,0,1,1,1,1,0,4,3,3,1,1,5,2
2,2,1,1,0,1,1,0,0,1,1,1,0,5,4,1,1,1,1,0
2,2,2,2,1,1,0,0,1,1,1,1,0,4,3,3,2,2,5,14
4,3,1,2,0,1,1,1,1,1,1,1,1,5,2,2,1,1,5,8
3,3,1,2,0,0,1,0,0,1,1,1,0,2,3,5,1,4,3,12
4,3,1,4,0,0,0,0,1,1,1,1,0,4,2,2,1,1,2,4
4,2,1,2,0,0,1,1,0,1,1,0,0,4,3,3,2,2,5,2
4,4,1,2,1,1,1,0,1,0,1,1,0,4,4,4,1,1,3,2
2,2,3,2,0,0,1,1,0,1,1,1,0,4,3,3,2,3,4,2
4,2,1,2,0,0,1,1,0,1,1,1,0,4,3,3,1,1,5,2
4,2,2,1,1,0,0,0,0,1,1,0,0,5,5,5,3,4,5,6
4,4,1,1,0,1,1,1,0,1,1,1,0,3,3,4,2,3,5,0
3,3,1,1,0,0,0,1,0,1,1,1,0,5,3,4,4,4,1,6
2,1,1,2,0,0,0,1,1,1,1,1,1,5,3,4,1,1,2,8
4,3,1,2,0,0,1,1,1,1,1,1,0,4,3,2,1,1,1,0
4,4,1,2,0,0,1,0,1,1,1,0,0,3,2,2,1,1,5,4
1,2,1,2,0,1,1,0,1,1,1,1,0,4,3,2,1,1,5,2
4,2,1,2,0,0,1,0,0,1,1,1,0,4,2,3,1,1,5,2
4,4,1,2,0,0,1,0,1,1,1,0,0,2,4,4,2,3,4,6
1,1,4,1,0,1,1,0,1,0,1,1,1,5,5,5,5,5,5,6
1,2,1,2,0,1,0,0,1,1,1,1,0,4,4,3,1,1,1,4
4,3,1,3,0,1,1,1,1,1,1,1,0,3,4,4,2,4,4,2
4,3,1,2,0,1,0,0,1,1,1,1,1,4,4,4,2,4,2,0
4,3,3,2,0,0,1,0,1,1,1,1,0,5,4,3,1,2,1,2
4,4,1,4,0,0,1,0,1,0,1,1,1,1,3,3,5,5,3,4
3,1,1,4,0,1,1,1,0,1,1,1,0,4,3,3,1,2,5,4
2,2,2,2,0,1,1,1,0,1,1,1,0,4,1,3,1,3,4,2
3,1,2,4,0,0,1,0,0,0,1,1,0,4,4,2,2,3,3,12
3,1,2,4,0,0,1,1,0,1,1,1,0,4,3,2,1,1,5,0
4,2,1,4,0,0,0,0,0,1,1,1,0,3,3,3,1,1,3,0
1,1,1,2,2,1,1,0,0,0,1,1,1,3,3,4,2,4,5,2
3,1,1,1,0,0,0,0,1,1,1,0,0,5,3,2,2,2,5,2
3,3,1,2,0,1,1,1,1,1,1,1,0,4,3,3,2,4,5,54
4,3,1,2,0,0,1,1,1,1,1,1,0,4,3,3,2,3,5,6
4,0,2,4,0,0,0,0,1,1,1,1,0,3,4,3,1,1,1,8
2,2,1,4,0,0,0,1,0,1,1,1,1,5,2,3,1,3,3,0
2,1,2,1,3,1,1,0,1,1,0,1,0,4,5,1,1,1,3,2
3,4,1,2,0,0,1,0,0,1,1,1,0,2,4,3,1,2,3,12
2,3,1,1,0,1,1,1,1,0,1,1,1,3,2,2,1,3,3,2
2,3,1,3,0,1,0,1,0,0,1,1,0,5,3,2,1,2,5,4
3,2,1,2,0,0,1,1,0,1,1,1,0,4,4,4,1,1,5,10
2,2,2,2,0,0,0,1,1,1,1,1,0,5,3,3,1,3,4,4
1,1,1,2,0,0,1,0,1,0,1,1,0,4,3,2,2,3,4,2
4,4,2,2,2,0,0,1,0,1,1,1,1,4,4,4,2,3,5,6
2,2,1,2,0,0,1,0,0,1,1,0,0,4,3,4,1,2,2,4
4,2,1,3,0,0,1,0,1,1,1,1,0,5,3,3,1,3,1,4
2,2,2,2,1,0,0,1,1,0,1,1,0,4,4,2,1,1,3,12
4,4,1,2,0,0,1,0,0,1,1,0,0,4,1,3,3,5,5,18
3,3,1,3,0,0,1,1,0,1,1,1,1,4,3,3,1,3,4,0
4,3,1,1,0,0,0,1,1,1,1,1,0,4,5,5,1,3,1,4
3,1,1,2,0,1,1,0,0,1,1,0,0,3,3,3,2,3,2,4
4,2,2,2,0,0,1,1,1,1,1,1,0,5,3,3,1,1,1,0
2,2,1,4,0,0,1,0,1,1,1,1,0,4,3,4,1,1,4,6
1,1,2,4,1,1,1,1,1,1,1,1,0,3,1,2,1,1,1,2
4,3,2,1,0,1,1,0,1,0,1,1,0,3,3,3,1,1,4,2
2,1,1,2,0,0,1,1,0,1,1,0,1,4,3,5,1,1,5,2
4,4,1,1,0,0,0,0,1,0,1,1,0,5,3,4,1,2,1,6
4,3,1,3,0,1,1,1,0,1,1,1,0,5,3,5,1,1,3,0
4,4,1,1,0,1,1,1,1,1,1,1,0,4,5,5,5,5,4,14
4,4,1,3,0,0,1,0,1,1,1,1,1,4,4,3,1,1,4,0
4,4,1,1,0,0,1,0,1,0,1,1,0,5,3,3,1,1,5,4
3,2,2,2,0,1,1,1,0,1,1,1,0,4,3,5,1,1,2,26
3,4,1,2,0,0,1,1,1,1,1,1,0,5,4,4,1,1,1,0
3,3,1,4,0,1,0,0,0,1,1,0,0,4,3,3,1,1,4,10
2,2,1,4,0,1,1,1,0,1,1,1,0,5,1,2,1,1,3,8
3,3,1,3,0,0,1,0,1,1,1,1,0,5,3,3,1,1,5,2
4,4,4,4,0,0,1,1,1,1,1,1,1,1,3,5,3,5,1,6
4,4,1,3,0,0,1,1,1,1,1,1,1,5,4,5,1,1,4,4
4,4,1,1,0,0,0,0,1,1,1,1,0,5,5,3,1,1,4,6
3,3,1,3,1,1,1,0,1,1,1,1,0,4,1,2,1,1,2,0
2,2,1,2,1,1,0,0,1,1,1,1,0,3,1,2,1,1,5,6
4,2,1,1,0,0,0,0,0,1,1,1,0,3,5,2,1,1,3,10
2,1,1,2,0,0,0,0,1,1,1,1,1,5,4,2,1,1,5,8
4,4,1,2,0,0,1,0,1,1,1,1,0,5,4,4,1,2,5,2
4,4,2,2,0,0,1,0,1,1,1,0,0,4,4,3,1,1,2,2
3,3,2,1,0,0,0,0,1,1,1,1,0,5,4,2,1,1,5,0
1,3,3,2,1,0,1,0,1,1,1,1,0,5,2,4,1,4,5,20
3,4,1,1,0,0,0,0,0,1,1,1,0,3,4,3,1,2,4,6
1,2,1,2,0,0,0,0,0,0,1,1,0,3,2,3,1,2,1,2
2,2,1,4,0,0,1,1,1,1,1,1,0,5,5,4,1,2,5,6
2,4,2,2,0,0,1,1,1,1,1,1,1,4,2,2,1,2,5,2
4,4,1,1,0,0,1,0,1,1,1,1,0,3,4,4,1,4,5,18
2,2,1,2,0,0,0,1,0,1,1,1,1,5,4,4,1,1,5,0
3,4,1,1,0,1,0,0,0,1,1,1,0,5,5,5,3,2,5,0
3,4,1,2,0,1,0,0,1,1,1,1,1,5,3,2,1,1,1,0
0,1,1,2,3,0,1,0,0,0,0,0,0,3,4,2,1,1,5,2
2,2,1,1,2,0,1,0,1,1,1,1,0,3,3,3,1,2,4,0
4,4,1,1,0,0,0,1,1,1,1,1,0,3,5,5,2,5,4,8
3,4,2,3,2,0,1,0,0,1,1,1,1,4,2,2,2,2,5,0
1,1,3,1,0,0,1,0,1,0,1,1,1,4,3,3,1,2,4,0
2,2,1,1,0,0,1,0,0,1,1,1,1,3,4,4,1,3,5,12
3,4,1,1,0,0,0,0,0,1,1,1,0,3,2,1,1,4,5,16
3,4,4,2,0,0,1,0,0,1,1,0,1,5,3,3,1,1,5,0
4,4,1,3,0,0,1,0,1,1,1,1,1,4,3,3,1,1,5,0
3,4,3,2,0,0,0,0,0,1,1,0,0,5,4,5,2,4,5,0
3,3,2,1,2,0,1,0,1,0,1,1,1,4,3,2,1,1,5,0
1,1,1,2,1,0,0,0,0,1,1,0,1,4,4,4,1,3,5,0
4,4,2,1,0,0,0,0,1,1,1,1,0,4,3,2,1,1,5,0
4,3,2,4,0,1,1,0,0,1,1,1,0,2,2,2,1,1,3,0
2,2,2,1,2,0,1,0,1,1,1,1,0,2,3,3,2,2,2,8
4,4,1,3,0,0,1,1,1,1,1,1,0,4,2,2,1,1,5,2
1,1,1,1,0,0,0,0,0,1,1,1,0,3,4,4,3,3,1,2
2,1,1,1,3,0,1,0,0,1,1,1,0,5,4,5,1,2,5,0
1,1,1,2,0,0,1,1,0,1,1,1,0,4,4,2,1,2,5,0
3,2,1,2,3,0,1,0,0,1,1,1,0,3,3,2,1,1,3,0
1,2,1,2,0,0,1,1,0,0,1,1,0,4,3,2,1,1,5,2
4,4,1,1,0,0,1,0,0,1,0,1,1,3,3,2,2,1,5,0
2,1,4,1,3,0,0,0,0,1,1,1,0,4,5,5,2,5,5,0
1,1,1,1,3,0,0,0,0,1,0,1,1,2,3,5,2,5,4,0
2,1,1,1,1,0,0,0,1,1,1,0,1,4,4,4,3,5,5,6
3,3,2,3,2,0,1,1,1,1,1,1,1,4,2,1,2,3,3,8
3,2,1,1,3,0,1,0,0,1,0,1,1,4,5,4,1,1,4,0
4,4,1,1,0,1,1,0,0,1,1,0,1,4,2,1,1,1,4,0
2,3,1,2,0,1,0,1,1,1,1,0,0,4,4,4,1,1,1,2
1,2,1,1,0,0,0,0,0,1,1,0,0,2,2,2,3,3,5,8
1,1,3,1,3,0,1,0,1,0,1,0,0,5,2,5,1,5,4,6
2,2,3,1,0,0,0,0,0,0,1,0,0,4,2,2,1,2,3,2
3,3,1,2,1,0,1,1,0,1,1,1,1,4,5,5,4,4,5,4
2,1,2,1,2,0,0,0,1,1,0,1,1,3,3,2,2,2,5,0
3,2,2,2,2,1,1,0,0,1,1,1,1,4,4,4,1,4,3,6
1,2,2,1,1,0,0,0,1,1,1,0,0,4,4,4,2,4,5,0
1,3,1,1,0,0,0,0,0,1,0,1,0,5,3,3,1,4,2,2
1,1,4,2,3,0,0,0,1,1,0,0,1,5,3,5,1,5,5,0
3,2,2,1,1,0,1,0,1,0,0,0,0,4,5,2,1,1,2,16
2,2,1,2,0,0,0,0,0,1,0,1,0,4,3,5,2,4,4,4
4,2,1,2,0,0,0,1,0,1,1,1,1,4,2,3,1,1,3,0
2,2,1,2,0,0,1,1,0,0,1,1,0,5,1,5,1,1,4,0
4,4,1,2,0,0,1,1,0,1,1,1,1,4,4,2,1,1,3,0
3,4,3,1,2,0,1,0,1,0,1,1,0,3,4,5,2,4,2,0
1,0,2,2,0,0,1,1,1,1,1,1,1,4,3,2,1,1,3,2
4,4,1,2,0,0,1,1,1,1,1,1,0,4,4,4,1,3,5,0
1,3,1,2,3,0,0,0,1,0,1,1,1,4,3,5,1,1,3,0
3,3,2,2,0,0,1,1,1,1,1,1,0,4,4,5,1,1,4,4
4,3,2,2,0,0,0,1,1,1,1,1,0,4,4,4,4,4,4,4
2,2,2,2,0,0,0,1,1,0,1,1,0,3,4,4,1,4,5,2
3,3,1,2,0,0,0,0,1,0,1,1,0,4,3,4,1,4,4,4
4,2,1,1,0,0,1,0,1,1,1,1,1,4,3,3,3,4,3,10
4,3,1,2,0,0,1,0,1,1,1,1,1,5,2,3,1,1,2,4
4,3,1,2,0,0,1,1,1,1,1,1,0,3,4,3,2,3,3,10
3,3,1,2,0,0,0,1,1,1,1,1,1,4,2,3,1,2,3,2
2,4,1,2,0,0,1,0,1,1,1,0,0,5,4,2,2,3,5,0
3,3,1,2,0,0,1,0,1,1,1,1,1,5,3,3,2,3,1,56
3,2,1,2,0,0,1,1,0,1,1,1,0,1,2,2,1,2,1,14
3,3,1,2,0,0,1,0,1,1,1,1,1,4,3,4,2,3,4,12
1,2,1,1,0,0,1,1,1,1,1,1,1,3,3,3,1,2,3,2
2,1,1,2,0,0,0,1,1,1,1,1,1,4,2,3,1,2,5,0
3,3,1,2,0,0,1,0,0,0,1,1,1,3,3,3,1,3,3,6
1,2,1,2,0,0,0,0,0,1,1,0,0,3,1,3,1,5,3,4
2,3,1,2,0,0,0,0,0,1,1,1,0,4,3,3,1,1,2,10
1,1,1,2,0,0,0,0,1,1,1,1,0,5,3,3,1,1,3,0
1,2,2,2,0,0,0,1,1,0,1,1,0,4,4,4,4,5,5,12
3,3,1,1,0,0,1,0,1,1,1,1,0,4,3,2,3,4,5,8
2,3,2,1,0,0,0,0,0,1,1,1,0,5,3,3,1,1,3,0
2,4,1,2,0,0,0,0,1,1,1,1,1,4,3,2,1,1,5,0
4,4,1,1,0,0,0,0,0,1,1,1,0,5,2,3,1,2,5,4
3,3,3,1,0,0,1,1,1,1,1,1,0,3,3,4,3,5,3,8
4,4,2,1,1,0,1,0,0,1,1,1,0,4,2,4,2,3,2,24
4,4,1,2,0,0,1,1,0,1,1,1,0,4,5,2,1,2,3,0
4,3,1,2,0,0,1,0,1,1,1,1,0,4,3,5,1,5,2,2
2,3,1,2,0,1,1,1,1,1,1,0,0,4,4,3,1,3,4,6
1,1,1,2,0,0,1,1,0,0,1,0,0,4,4,4,1,3,1,4
2,2,1,1,0,0,1,0,0,1,1,1,0,5,3,2,1,2,3,18
2,2,2,4,0,0,1,1,1,0,1,1,0,5,3,5,1,1,5,6
3,4,1,3,1,0,1,1,0,1,1,1,1,4,4,3,3,4,5,28
3,1,1,2,3,0,1,1,0,1,1,1,0,2,3,3,2,2,4,5
4,3,1,2,0,0,0,1,1,1,1,1,1,1,3,2,1,1,1,10
1,1,2,1,0,0,1,1,0,1,1,0,0,4,3,2,1,4,5,6
4,3,2,3,0,0,1,1,1,1,1,1,1,4,4,2,1,1,4,6
3,3,1,4,0,0,1,1,1,1,1,1,0,4,3,3,1,2,3,10
4,4,1,2,0,0,1,1,0,1,1,1,1,5,3,5,4,5,3,13
2,2,1,2,0,1,1,1,0,1,1,1,0,3,3,4,1,1,4,0
2,2,1,2,1,0,1,1,1,1,1,1,0,4,4,4,2,4,5,15
4,4,1,1,0,0,1,1,0,1,1,0,0,5,2,1,1,2,3,12
3,2,2,2,0,0,0,1,0,1,1,1,0,4,4,4,1,3,1,2
4,3,1,2,2,0,0,1,0,1,1,1,1,3,4,5,2,4,1,22
3,3,1,2,1,0,1,1,0,1,1,1,0,3,2,4,2,4,4,13
2,3,2,1,0,0,1,1,0,1,1,0,0,3,3,3,1,4,3,3
2,2,1,3,0,0,1,1,1,1,1,1,0,4,3,3,1,1,4,4
2,1,2,2,0,0,1,0,1,1,1,1,0,4,2,5,1,2,5,2
1,1,1,3,1,0,1,0,1,1,1,0,1,4,3,4,1,1,5,0
2,3,1,2,0,1,0,0,0,1,1,1,0,2,3,1,1,1,3,2
2,2,2,2,0,0,1,1,0,1,1,1,0,3,3,3,5,5,4,0
4,4,1,3,0,0,1,0,1,0,1,1,0,5,3,2,1,1,5,0
3,1,1,2,1,0,0,0,1,1,1,1,1,5,3,3,1,1,4,16
3,2,1,2,0,0,0,0,1,0,1,1,0,5,3,4,1,3,3,10
2,3,1,2,0,0,1,1,0,0,1,1,0,5,3,3,1,3,3,2
2,1,4,2,0,1,1,1,1,1,1,1,1,4,3,2,4,5,3,14
2,1,2,3,0,0,0,0,1,1,1,1,1,3,2,3,1,2,3,10
4,3,1,2,0,0,0,0,1,1,1,1,1,3,2,3,1,2,3,14
2,2,2,2,0,0,1,1,1,1,1,1,0,4,5,2,1,1,1,4
4,4,1,2,0,1,1,0,1,1,1,1,1,4,5,5,1,3,2,14
4,4,1,2,0,0,1,1,1,1,1,1,0,4,2,4,2,4,1,2
1,1,2,2,0,0,1,1,0,1,1,1,0,3,4,2,1,1,5,18
3,2,2,3,0,0,0,0,1,1,1,1,1,5,3,3,1,3,2,10
2,2,1,2,0,0,0,1,1,0,1,1,1,4,4,2,5,5,4,4
2,1,1,1,0,0,0,0,0,1,1,1,1,4,5,2,1,1,5,20
2,1,3,2,0,0,0,0,1,1,1,0,0,2,1,1,1,1,3,2
2,2,1,2,1,0,0,0,0,1,0,1,0,5,5,4,3,5,2,0
4,3,2,2,0,0,0,0,1,1,1,1,1,2,5,5,1,4,5,14
4,4,2,2,0,0,1,1,0,1,1,1,0,3,3,3,2,3,4,2
4,3,1,1,0,0,0,0,1,0,1,1,0,5,4,5,1,1,3,0
4,4,1,1,0,0,0,0,1,1,1,1,0,5,3,2,1,2,5,0
2,1,2,3,0,0,1,1,0,0,1,1,1,4,4,4,1,1,3,0
2,1,3,1,0,0,0,0,0,1,1,1,0,4,3,3,1,1,4,6
2,3,2,1,0,0,0,0,0,1,1,1,0,5,2,2,1,1,2,4
3,1,1,1,3,0,0,0,0,0,0,1,1,5,4,5,5,5,1,16
3,3,1,2,1,0,1,0,0,1,1,1,1,4,3,3,1,3,5,8
0,2,1,1,0,0,0,1,0,0,1,1,0,4,3,2,2,4,5,0
3,2,2,1,1,0,0,0,0,1,0,1,0,4,4,5,2,4,5,0
3,3,3,2,0,1,1,0,0,0,1,1,0,5,3,3,1,3,2,6
2,1,1,1,1,0,0,0,0,0,0,1,0,3,2,5,2,5,5,4
2,1,2,1,0,0,0,0,1,0,1,0,0,3,3,2,1,3,3,0
2,1,1,1,0,0,0,0,0,0,1,1,0,4,4,2,2,4,5,0
1,1,2,1,1,0,1,0,1,1,1,1,0,4,4,4,1,2,5,2
4,2,1,4,0,0,1,1,1,1,1,1,0,4,2,3,1,1,4,6
4,3,1,2,0,0,1,0,0,1,1,1,0,4,3,1,1,1,1,12
2,1,1,2,0,0,0,0,1,1,1,1,0,5,2,4,1,2,4,8
2,2,1,4,0,0,0,1,1,1,1,1,1,3,4,1,1,1,2,0
4,3,1,2,0,0,1,1,0,1,1,1,1,3,1,2,1,3,2,21
4,3,1,2,0,0,1,1,0,0,1,1,0,4,3,2,1,1,3,2
3,2,1,3,0,0,0,0,1,0,1,0,0,5,3,2,1,1,3,1
3,3,1,3,0,0,0,0,1,0,1,0,0,3,2,3,1,1,4,4
2,2,1,3,0,0,1,1,1,1,1,1,1,4,3,3,1,1,3,0
3,4,2,2,0,0,1,1,1,1,1,1,0,4,2,5,3,4,1,13
3,1,1,2,0,0,0,1,1,1,1,1,1,5,4,4,3,4,5,2
4,4,2,2,0,0,0,1,1,1,1,1,0,4,3,4,2,2,4,8
4,2,1,2,0,0,1,1,1,1,1,1,1,5,4,5,1,3,5,10
2,1,2,2,0,0,1,0,0,1,0,1,1,4,3,5,1,2,3,0
3,3,1,2,2,0,1,1,1,1,1,1,0,4,3,5,3,3,5,15
2,3,1,4,0,0,1,1,1,1,1,1,1,4,5,5,1,3,2,4
1,1,2,2,0,0,1,1,0,0,1,0,0,4,4,3,1,1,3,2
1,2,1,2,0,0,1,1,1,0,1,0,1,3,5,2,2,2,1,2
2,4,2,2,0,0,1,1,0,1,1,1,1,4,3,3,1,1,1,2
2,2,2,2,0,1,1,1,0,1,1,1,1,4,4,4,2,3,5,6
3,2,2,2,0,0,0,0,0,0,0,1,1,4,1,1,1,1,5,75
4,4,2,1,0,0,0,1,1,1,1,1,0,3,2,4,1,4,3,22
4,4,1,2,1,1,1,0,1,1,1,1,1,2,4,4,1,1,4,15
4,3,2,1,0,0,0,1,1,1,1,1,0,4,2,3,1,2,1,8
4,1,2,1,0,0,0,1,1,1,1,1,1,4,5,4,2,4,5,30
3,2,1,1,1,0,0,0,0,1,1,1,0,4,4,4,3,4,3,19
1,1,2,4,0,0,1,1,1,1,1,0,0,5,2,2,1,1,3,1
1,1,2,2,0,1,0,0,1,1,1,1,0,5,4,4,1,1,4,4
2,2,1,2,0,0,1,0,0,0,1,1,0,5,4,5,1,2,5,4
1,1,1,2,0,0,0,1,0,0,1,1,0,4,3,3,1,2,4,2
2,2,1,3,0,0,1,1,0,1,1,1,0,4,3,3,1,2,2,5
1,1,1,3,0,0,1,1,0,1,1,1,0,4,3,3,1,1,3,6
2,1,1,3,0,0,0,1,1,1,1,1,0,4,2,4,1,3,2,6
4,4,1,2,0,0,1,1,1,1,1,1,0,5,4,3,1,1,2,9
4,2,1,2,0,0,1,1,1,1,1,1,1,4,3,2,1,4,5,11
4,3,1,3,0,0,1,1,0,1,1,1,0,4,2,2,1,2,3,0
2,1,1,2,1,0,0,0,0,1,1,1,1,5,4,3,1,1,5,12
3,1,2,4,0,0,1,1,0,1,1,0,0,3,1,2,1,1,3,6
3,2,2,3,0,0,1,1,1,1,1,1,0,5,4,2,1,1,4,8
3,3,1,1,0,0,1,1,0,1,1,1,0,4,4,3,1,3,5,4
4,4,2,2,0,0,1,1,1,1,1,1,0,2,3,4,2,3,2,0
4,3,2,2,0,0,1,1,0,1,1,1,1,4,4,5,1,2,2,10
4,3,1,4,0,0,1,1,0,1,1,1,0,4,3,3,1,1,3,0
4,4,1,1,0,0,1,1,0,1,1,1,1,1,4,2,2,2,1,5
4,4,1,2,0,0,1,0,0,1,1,1,1,4,2,4,1,1,4,14
4,4,2,1,0,0,0,1,0,1,1,1,0,4,1,1,2,2,5,0
4,2,2,3,0,0,1,1,0,1,1,1,0,4,3,3,1,1,3,0
3,2,1,4,0,0,1,1,1,0,1,1,0,5,2,2,1,2,5,0
3,3,1,2,1,0,1,0,1,1,1,1,1,4,4,4,1,1,3,20
2,4,1,2,1,0,1,1,1,1,1,1,0,4,4,3,1,1,3,8
3,2,1,1,0,0,0,0,1,1,1,0,0,5,5,3,1,1,5,0
4,4,2,1,1,0,1,1,0,1,1,1,1,4,3,4,1,1,4,38
3,3,1,2,1,0,0,0,1,1,1,0,1,4,5,3,1,2,5,0
1,1,1,2,1,1,1,0,1,0,1,1,0,4,4,3,1,3,3,18
1,2,1,2,1,0,0,0,1,0,1,0,1,4,2,4,2,2,3,0
2,1,3,2,0,0,1,0,0,1,0,1,1,3,4,1,1,1,2,20
1,2,1,2,1,0,0,0,0,0,1,1,0,4,5,2,2,2,4,3
3,2,2,2,1,0,1,1,0,0,1,1,1,4,2,2,1,2,1,22
1,1,1,3,2,0,0,0,0,0,1,1,1,4,1,2,1,1,3,14
2,3,1,3,1,0,0,0,0,1,1,1,1,4,1,2,1,1,3,40
2,1,2,2,0,0,1,1,1,1,1,1,0,5,3,3,1,2,1,0
4,3,1,3,0,0,1,1,1,1,1,1,1,4,3,4,1,1,5,9
3,4,1,3,0,0,1,1,1,0,1,1,0,4,3,4,2,5,5,0
4,4,1,2,0,0,1,1,0,1,1,1,0,4,4,4,3,3,5,2
4,3,1,2,0,0,1,1,0,1,1,1,1,5,2,2,1,2,5,23
2,2,1,2,0,0,1,0,0,1,1,0,1,4,2,2,1,1,3,12
2,2,1,3,0,0,1,1,1,1,1,1,0,3,3,2,2,2,3,3
3,1,1,3,0,0,1,0,0,0,1,1,0,3,4,3,2,3,5,1
0,2,2,3,0,0,0,0,0,1,1,1,0,3,3,3,2,3,2,0
4,4,1,3,0,0,0,0,1,1,1,1,0,4,3,3,2,2,3,3
3,3,1,1,0,0,0,0,1,0,1,1,0,4,3,5,3,5,5,3
2,2,4,1,0,0,1,0,0,1,1,1,0,4,4,5,5,5,4,8
4,4,1,3,0,0,1,1,1,1,1,1,0,5,4,4,1,3,4,7
4,4,2,3,0,0,1,1,0,0,1,1,1,4,3,3,1,2,4,4
2,2,1,4,0,0,1,0,1,1,1,1,0,4,5,5,2,4,5,2
2,4,1,3,0,0,1,0,0,1,1,1,1,4,4,3,1,1,5,7
3,3,1,2,0,0,0,0,1,1,1,1,0,5,3,4,1,1,4,0
2,2,1,2,0,0,0,0,1,0,1,1,1,4,3,3,1,1,2,0
2,2,2,4,0,0,0,0,1,1,1,0,0,4,4,4,1,1,4,0
3,4,1,3,0,0,0,0,0,1,1,1,0,4,4,5,1,3,5,16
3,1,1,3,1,0,0,1,0,1,1,0,0,5,4,3,1,2,5,12
3,2,1,2,0,0,1,1,0,1,1,1,1,4,3,2,2,3,2,0
3,3,1,4,0,0,1,0,0,1,1,1,0,5,3,3,1,1,1,7
3,2,1,2,0,0,1,1,0,1,1,1,0,4,3,3,2,3,2,4
2,1,1,3,1,0,0,1,1,1,1,1,1,4,3,4,1,3,3,4
4,4,1,2,1,0,1,0,1,1,1,1,0,4,3,3,2,2,2,0
3,4,1,2,0,0,0,0,1,1,1,1,1,4,3,3,1,3,5,11
2,2,1,2,1,0,1,0,0,1,1,1,1,3,3,1,1,2,4,0
2,3,1,3,0,0,1,0,0,1,1,1,0,4,3,3,1,2,3,4
